0,カップ麺(ラーメン),448,
0,クロワッサン,448,
0,インスタントラーメン,445,
0,カップ焼きそば,436,
0,デニッシュパン,396,
0,焼きふ,385,
0,コーンフレーク,381,
0,オートミール,380,
0,スパゲティ(乾麺),378,
0,マカロニ(乾麺),378,
0,ビーフン(乾麺),377,
0,パン粉,373,
0,白玉粉,369,
0,小麦粉(中力粉),368,
0,小麦粉(薄力粉),368,
0,小麦粉(強力粉),366,
0,コーンフラワー,363,
0,コーンミール,363,
0,上新粉,362,
0,はと麦,360,
0,アマランサス,358,
0,そうめん(乾),356,
0,コーングリッツ,355,
0,とうもろこし(玄穀),350,
0,てんぷら粉,349,
0,大麦(押麦),340,
0,ロールパン,316,
0,チョココルネ,308,
0,クリームパン,305,
0,しゅうまいの皮,295,
0,春巻の皮,295,
0,餃子の皮,291,
0,あんまん,281,
0,あんぱん,280,
0,フランスパン,279,
0,ぶどうパン,269,
0,ピザクラスト,268,
0,コッペパン,265,
0,ライ麦パン,264,
0,食パン,264,
0,ナン,262,
0,ホットケーキ,261,
0,肉まん,251,
0,もち,235,
0,イングリッシュマフィン,228,
0,中華めん(蒸し),198,
0,おこわ(赤飯),189,
0,ごはん(七分つき米),168,
0,ごはん(精白米),168,
0,ごはん(はいが精米),167,
0,ごはん(玄米),165,
0,中華めん(ゆで),149,
0,そば(ゆで),132,
0,うどん(ゆで),105,
0,くずきり(ゆで),135,
0,こんにゃく,5,
0,さつまいも(生),132,
0,さといも,59,
0,じゃがいも,73,
0,しらたき,6,
0,タピオカ(乾),351,
0,ながいも,65,
0,フライドポテト,388,
0,マッシュポテト(乾),357,
0,やまといも,123,
0,焼きいも,163,
0,フライビーンズ,472,
0,はるさめ(芋・乾),342,
0,はるさめ(緑豆・乾),345,
0,豆きんとん,249,
0,つぶしあん,244,
0,金山寺みそ,256,
0,おたふく豆,251,
0,うずら豆,237,
0,えんどう豆(塩豆),364,
0,ひよこ豆フライ,419,
0,あずき(乾),339,
0,こしあん,155,
0,えんどう豆(ゆで),148,
0,ひよこ豆(ゆで),171,
0,紅花いんげん(ゆで),121,
0,きな粉,437,
0,いんげん豆(ゆで),143,
0,だいず(乾),417,
0,納豆,200,
0,納豆(ひきわり),194,
0,凍り豆腐(乾),529,
0,ゆば(生),231,
0,豆乳,46,
0,だいず(ゆで),180,
0,豆腐(絹ごし),56,
0,油揚げ,386,
0,豆腐(木綿),72,
0,豆腐(焼き),88,
0,がんもどき,228,
0,厚揚げ/生揚げ,150,
0,おから,89,
0,あじ(干物),220,
0,あじ(焼),164,
0,あじ(生),121,
0,あなご,194,
0,あゆ(焼),177,
0,あんこう,58,
0,あんこうのきも,445,
0,いかなご,125,
0,いさき,127,
0,いわし(みりん干),332,
0,いわし(丸干),193,
0,いわし(焼き),244,
0,いわし(生),217,
0,いわし(油漬),359,
0,うなぎ(かば焼),293,
0,うなぎ(きも),118,
0,かじき,141,
0,かつお,114,
0,かつおぶし,356,
0,かます(焼),145,
0,かれい,95,
0,かれい(干し),117,
0,かれい(子持ち),162,
0,かわはぎ,80,
0,きす,85,
0,ぎんだら,220,
0,きんめだい,160,
0,さけ(生),154,
0,さば,202,
0,さば(水煮缶),190,
0,さより,95,
0,さわら,177,
0,さんま,310,
0,さんま(開き),261,
0,ししゃも,177,
0,しめさば,339,
0,しらうお,77,
0,しらす干し,113,
0,すずき,123,
0,スモークサーモン,161,
0,たい(焼),226,
0,たい(生),194,
0,たたみいわし,372,
0,たちうお,266,
0,たら(でんぶ),278,
0,たら(塩),65,
0,たら(生),79,
0,ツナ缶(水煮),71,
0,ツナ缶(油漬),267,
0,にじます,127,
0,にしん,216,
0,はたはた,113,
0,はまち(生),256,
0,ひらめ,124,
0,ふかひれ,342,
0,ふぐ,85,
0,ぶり,257,
0,ほっけ(開き),142,
0,ほっけ(生),115,
0,まぐろ(脂身),344,
0,まぐろ(赤身),125,
0,むつ,173,
0,めざし,257,
0,めばる,109,
0,わかさぎ,77,
0,塩さけ,199,
0,煮干し,332,
0,身欠きにしん,246,
0,アーモンド,606,
0,カシューナッツ,576,
0,ぎんなん,166,
0,くり(甘露煮),238,
0,くり(中国ぐり),225,
0,くり(日本ぐり),167,
0,くるみ,674,
0,ごま,599,
0,バターピーナッツ,592,
0,ピスタチオ,615,
0,マカダミアナッツ,720,
0,らっかせい,585,
0,松の実,690,
0,えのきたけ,22,
0,エリンギ,24,
0,きくらげ(乾),167,
0,しいたけ,18,
0,しめじ,18,
0,なめこ,14,
0,なめこ(缶),9,
0,まいたけ,16,
0,マッシュルーム,16,
0,マッシュルーム(缶),14,
0,まつたけ,23,
0,干ししいたけ（乾）,182,
0,あおやぎ,61,
0,あさり,30,
0,あさりの佃煮,225,
0,あみの塩辛,65,
0,あわび,73,
0,いか(焼),117,
0,いか(生),88,
0,いかなごの佃煮,282,
0,いかの塩辛,117,
0,いくら,272,
0,うに,120,
0,えびの佃煮,244,
0,かき,60,
0,かつお節の佃煮,237,
0,かにかまぼこ,90,
0,かに缶,73,
0,かまぼこ,95,
0,くらげ,22,
0,さざえ,89,
0,さつま揚げ,139,
0,しじみ,51,
0,しゃこ,98,
0,すじこ,282,
0,するめ,334,
0,ずわいがに,69,
0,たいらがい,100,
0,たこ,76,
0,たらこ,170,
0,たらばがに,80,
0,ちくわ,121,
0,つぶがい,86,
0,つみれ,113,
0,とりがい,86,
0,なると,80,
0,ばいがい,87,
0,はまぐり,38,
0,はまぐりの佃煮,219,
0,はんぺん,94,
0,ブラックタイガー,82,
0,ほたて(ひも付),72,
0,ほたて(貝柱),97,
0,ほたるいか,84,
0,ほっき貝,73,
0,ほや,30,
0,みる貝,82,
0,めんたいこ,126,
0,わかさぎの佃煮,317,
0,伊勢えび,92,
0,干しえび,232,
0,甘えび,87,
0,魚肉ソーセージ,161,
0,桜えび,91,
0,芝えび,83,
0,車えび,97,
0,数の子,89,
0,大正えび,95,
0,毛がに,83,
0,粒うに,183,
0,ウインナー,321,258
0,うずら卵(水煮缶),182,
0,うずら卵(生),179,
0,かも,128,
0,コンビーフ缶,203,
0,サラミ,497,
0,ショルダーベーコン,186,
0,たまご(ゆで),151,
0,たまご(生),151,
0,たまご(卵黄),387,
0,たまご(卵白),50,
0,たまご豆腐,79,
0,ハム(ボンレス),118,
0,ハム(ロース),196,
0,ピータン,214,
0,ビーフジャーキー,315,
0,フォアグラ,510,
0,フランクフルト,298,
0,ベーコン,405,
0,ベーコン(ロース),211,
0,ポーチドエッグ,164,
0,マトン,224,
0,レバーペースト,378,
0,ローストビーフ,196,
0,牛サーロイン(輸入),298,
0,牛サーロイン(和牛),498,
0,牛たん(舌),269,
0,牛はつ(心臓),142,
0,牛ばら肉(輸入),371,
0,牛ばら肉(和牛),517,
0,牛ひき肉,224,
0,牛ひれ肉(輸入),133,
0,牛ひれ肉(和牛),223,
0,牛ミノ(胃),62,
0,牛もも肉(輸入),182,
0,牛もも肉(和牛),246,298
0,牛ランプ(輸入),234,
0,牛ランプ(和牛),347,
0,牛リブロース(輸入),263,
0,牛リブロース(和牛),468,
0,牛レバー(肝臓),132,
0,牛肩ロース(輸入),240,
0,牛肩ロース(和牛),411,
0,牛肩肉(輸入),180,
0,牛肩肉(和牛),286,
0,牛大腸,162,
0,牛肉(小腸),287,
0,鶏ささみ,105,
0,鶏はつ(心臓),207,
0,鶏ひき肉,166,
0,鶏むね肉(皮なし),108,
0,鶏むね肉(皮付),191,
0,鶏もも肉(皮なし),116,
0,鶏もも肉(皮付),200,
0,鶏レバー(肝臓),111,
0,鶏砂ぎも,94,
0,鶏手羽肉,211,
0,鶏軟骨,54,
0,子牛ばら肉,122,
0,焼豚,172,
0,生ハム,247,
0,豚たん(舌),221,
0,豚ばら肉,386,
0,豚ひき肉,221,
0,豚ひれ肉,115,
0,豚もも肉,183,
0,豚レバー(肝臓),128,
0,豚ロース,263,
0,豚肩ロース,253,
0,豚足,230,
0,あおさ(乾),130,
0,あおのり(乾),150,
0,カットわかめ(乾),138,
0,かんてん,3,
0,こんぶ(乾),138,
0,こんぶつくだ煮,84,
0,ところてん,2,
0,とろろこんぶ,117,
0,のりのつくだ煮,77,
0,ひじき(乾),139,
0,めかぶわかめ,11,
0,もずく,4,
0,わかめ(素干し),117,
0,塩昆布,110,
0,塩蔵わかめ(塩抜),11,
0,焼きのり,188,
0,味付けのり,179,
0,アイスクリーム(アイスミルク),167,
0,アイスクリーム(ソフトクリーム),146,
0,アイスクリーム(ラクトアイス・低脂肪),108,
0,アイスクリーム(ラクトアイス・普通脂肪),224,
0,アイスクリーム(高脂肪),212,
0,アイスクリーム(普通脂肪),180,
0,カッテージチーズ,105,
0,カマンベールチーズ,310,
0,コーヒーミルク(液/植物性),248,
0,コーヒーミルク(液/乳脂肪),211,
0,コーヒーミルク(粉/植物性),568,
0,コーヒーミルク(粉/乳脂肪),518,
0,コーヒー牛乳,56,
0,シャーベット,127,
0,チーズ(クリーム),346,
0,パルメザンチーズ,475,
0,フルーツ牛乳,46,
0,プロセスチーズ,339,
0,ホイップクリーム(植物性),402,
0,ホイップクリーム(乳脂肪),422,
0,ヨーグルト(飲料),65,
0,ヨーグルト(全脂/無糖),62,
0,ヨーグルト(脱脂/加糖),67,
0,加糖練乳,331,
0,牛乳(脱脂乳),33,
0,牛乳(低脂肪乳),46,
0,牛乳(特濃),73,
0,牛乳(普通),67,
0,生クリーム(植物性),392,
0,生クリーム(乳脂肪),433,
0,脱脂粉乳(粉),359,
0,乳酸菌飲料(殺菌乳製品),217,
0,乳酸菌飲料(乳製品),71,
0,あしたば,33,
0,アスパラガス(グリーン),24,
0,アスパラガス(ホワイト),22,
0,うど,14,
0,エシャロット,76,
0,えだまめ,134,
0,オクラ,33,
0,かいわれだいこん,21,
0,かぶ(根),21,
0,かぶ(葉),22,
0,かぼちゃ(西洋),93,
0,かぼちゃ(日本),60,
0,カリフラワー,26,
0,かんぴょう(乾),261,
0,きくの花,23,
0,キャベツ(ゆで),20,
0,キャベツ(生),23,
0,きゅうり,14,
0,きょうな(=水菜),22,
0,グリンピース,98,
0,クレソン,15,
0,コーン缶（クリーム）,84,
0,コーン缶（ホール）,82,
0,こねぎ,27,
0,ごぼう,58,
0,こまつな,15,
0,サニーレタス,16,
0,さやいんげん,26,
0,さやえんどう,34,
0,サラダ菜,14,
0,ししとうがらし,27,
0,しそ,37,
0,しその実,41,
0,しゅんぎく,27,
0,じゅんさい,5,
0,しょうが,30,
0,ズッキーニ,14,
0,スナップえんどう,43,
0,せり,18,
0,セロリ,15,
0,ぜんまい(ゆで),21,
0,そら豆,112,
0,だいこん(根),18,
0,だいこん(葉・ゆで),25,
0,たけのこ,30,
0,たけのこ(しなちく),19,
0,たまねぎ,37,
0,たらの芽,26,
0,ちんげん菜,12,
0,つまみ菜,20,
0,つるむらさき,13,
0,とうがらし,345,
0,とうがん,16,
0,とうもろこし,99,
0,トマト,19,
0,ながねぎ,28,
0,なす,22,
0,なの花,28,
0,にがうり,17,
0,にら,31,
0,にんじん,36,
0,にんにく,134,
0,にんにくの茎,44,
0,はくさい(ゆで),13,
0,はくさい(生),14,
0,バジル(生),24,
0,パセリ,44,
0,パブリカ(赤ピーマン),30,
0,ピーマン,22,
0,ふき,8,
0,ふきのとう,32,
0,ブロッコリー,27,
0,ほうれん草,25,
0,みつば,17,
0,ミニトマト,29,
0,みょうが,12,
0,もやし(大豆),34,
0,もやし(緑豆),12,
0,モロヘイヤ,38,
0,ヤングコーン,29,
0,ゆりね,126,
0,ラディッシュ,15,
0,リーフレタス(ちりめんちしゃ),16,
0,レタス,12,
0,レッドキャベツ,30,
0,れんこん,66,
0,わけぎ,30,
0,わらび,15,
0,芽きゃべつ,49,
0,切干大根(乾),279,
0,米なす,22,
0,葉しょうが,11,
0,アセロラジュース/10%果汁,42,
0,あま酒,81,
0,ウィスキー,237,
0,ウーロン茶,0,
0,オレンジジュース/30%果汁,41,
0,オレンジジュース/50%果汁,47,
0,オレンジジュース/ストレート,42,
0,グァバジュース/20%果汁,51,
0,グレープフルーツジュース/20%果汁,39,
0,グレープフルーツジュース/ストレート,40,
0,コーヒー,4,
0,コーラ,46,
0,ココナッツウォーター,20,
0,ココナッツミルク,150,
0,ジン,284,
0,トマトジュース,17,
0,パイナップルジュース/10%果汁,50,
0,パイナップルジュース/ストレート,41,
0,ピーチネクター,48,
0,ビール,40,
0,ぶどうジュース/10%果汁,52,
0,ぶどうジュース/ストレート,55,
0,ブランデー,237,
0,みかんジュース/ストレート,41,
0,ミルクココア(粉),412,
0,ラム,240,
0,りんごジュース/30%果汁,46,
0,りんごジュース/ストレート,44,
0,レモン(果汁),26,
0,ワイン(ロゼ),77,
0,ワイン(赤),73,
0,ワイン(白),73,
0,紅茶,1,
0,昆布茶(粉),98,
0,焼酎,206,
0,紹興酒,127,
0,炭酸飲料,51,
0,豆乳,46,
0,豆乳(調整豆乳),64,
0,日本酒,107,
0,日本茶(せん茶),2,
0,日本茶(ほうじ茶),0,
0,日本茶(玉露),5,
0,日本茶(玄米茶),0,
0,日本茶(番茶),0,
0,梅酒,156,
0,麦茶,1,
0,発泡酒,45,
0,抹茶(粉),324,
0,野菜ジュース,17,
0,オイスターソース,107,
0,オリーブ油,921,
0,かたくり粉,330,
0,かつおだし(液),3,
0,からし,315,
0,カレールウ,512,
0,カレー粉,415,
0,くず粉,347,
0,コーンスープ(液状),86,
0,コーンスープ(粉末),425,
0,コーンスターチ,354,
0,こしょう(黒),364,
0,こしょう(白),378,
0,ごま油,921,
0,サウザンアイランドドレッシング,416,
0,さつまいもでん粉,332,
0,さとう(黒),354,
0,さとう(上白),384,
0,サラダ油,921,
0,しお,0,
0,しょうゆ(濃口),71,
0,しょうゆ(薄口),54,
0,ショートニング,921,
0,す,25,
0,ソース(ウスター),117,
0,ソース(とんかつ),132,
0,チリソース,115,
0,チリペッパーソース,55,
0,とうばん醤,60,
0,トマトケチャップ,119,
0,トマトソース,44,
0,トマトピューレー,41,
0,トマト水煮缶(ホールトマト),20,
0,ドライイースト,313,
0,ドレッシング(イタリアン),406,
0,ドレッシング(和風・ノンオイル),82,
0,バター,745,
0,バター(無塩),763,
0,はちみつ,294,
0,ハヤシルウ,512,
0,フレンチドレッシング,406,
0,ベーキングパウダー,127,
0,マーガリン,758,
0,マーボー豆腐の素,115,
0,マヨネーズ,703,
0,みそ,192,
0,みりん,226,
0,めんつゆ(3倍濃厚),98,
0,めんつゆ(ストレート),44,
0,ラード(=豚脂),941,
0,ラー油,919,
0,わさび(ねり),265,
0,牛脂,940,
0,固形コンソメ,235,
0,昆布だし(液),4,
0,煮干だし(液),1,
0,酒粕,227,
0,中華だし(液),3,
0,鳥がらだし(液),7,
0,洋風だし(液),6,
0,粒入りマスタード,229,
0,顆粒風味調味料(粉),224,
0,アップルパイ,304,
0,あま納豆,296,
0,あめ,390,
0,あられ,381,
0,いまがわ焼(=たい焼),222,
0,ういろう,183,
0,ウエハース,454,
0,エクレア,245,
0,かしわもち,206,
0,カステラ,319,
0,ガム,388,
0,かりんとう,441,
0,きび団子,304,
0,キャラメル,433,
0,きんつば,264,
0,くし団子(あん),201,
0,くし団子(しょうゆ),197,
0,クラッカー,492,
0,コーンスナック,526,
0,さくら餅,238,
0,シュークリーム,245,
0,ショートケーキ,344,
0,スポンジケーキ,298,
0,ゼリー(オレンジ),70,
0,ゼリー(コーヒー),45,
0,せんべい(塩),373,
0,せんべい(甘辛),380,
0,せんべい(揚げ),465,
0,タルト,293,
0,ちまき,153,
0,チョコレート,557,
0,ドーナッツ,375,
0,どら焼,284,
0,ババロア,218,
0,ビスケット,522,
0,プリン,126,
0,ポップコーン,484,
0,ポテトチップス,554,
0,マシュマロ,326,
0,まんじゅう(くずざくら),220,
0,まんじゅう(蒸し),261,
0,ようかん,296,
0,ワッフル,256,
0,水ようかん,171,
0,大福もち,235,
0,八つ橋(あん入り),279,
0,ピーナッツバター,640,
0,あんずジャム(高糖度),262,
0,いちごジャム(高糖度),256,
0,マーマレード(高糖度),255,
0,りんごジャム,213,
0,あんずジャム(低糖度),205,
0,いちごジャム(低糖度),197,
0,マーマレード(低糖度),193,
0,ブルーベリージャム,181,
0,うめ干し,33,
0,うりの塩漬,16,
0,オリーブのピクルス,145,
0,かぶのぬか漬(根),28,
0,かぶのぬか漬(葉),34,
0,かぶの塩漬,23,
0,からし菜漬け,36,
0,キムチ,46,
0,きゅうりのぬか漬,27,
0,きゅうりのピクルス,67,
0,きゅうりの塩漬,16,
0,きょう菜の塩漬,27,
0,ザーサイ,23,
0,しば漬,30,
0,しょうがの甘酢漬(がり),51,
0,しょうがの酢漬(紅しょうが),19,
0,だいこんぬか漬,30,
0,たかな漬,33,
0,たくあん漬,27,
0,なすのからし漬,118,
0,なすのぬか漬,27,
0,なすの塩漬,23,
0,なめたけ,42,
0,なら漬,157,
0,のざわ菜,18,
0,はくさい漬,16,
0,ふくじん漬,136,
0,べったら漬,57,
0,らっきょう甘酢漬,115,
0,わさび漬,145,
0,(缶詰)さくらんぼ,74,
0,(缶詰)パインアップル,84,
0,(缶詰)みかん,64,
0,(缶詰)もも,85,
0,(缶詰)西洋なし,85,
0,アボガド,187,
0,いちご,34,
0,いちじく,54,
0,いよかん,46,
0,オレンジ,39,
0,かぼす(果汁),25,
0,キウイフルーツ,53,
0,きんかん,71,
0,ぐみ,68,
0,グレープフルーツ,38,
0,さくらんぼ(国産),60,
0,さくらんぼ(米国産),66,
0,ざくろ,56,
0,すいか,37,
0,すもも,44,
0,なし,43,
0,なつみかん,40,
0,パインアップル,51,
0,はっさく,45,
0,バナナ,86,
0,パパイヤ,38,
0,びわ,40,
0,ぶどう,59,
0,ブルーベリー,49,
0,プルーン(乾),235,
0,マンゴー,64,
0,みかん,46,
0,メロン(赤肉種),42,
0,メロン(白肉腫),42,
0,もも,40,
0,ゆず(果汁),21,
0,ゆず(果皮),59,
0,ライチ,63,
0,ライム(果汁),27,
0,ラズベリー,41,
0,りんご,54,
0,レモン(全果),54,
0,柿,60,
0,干しぶどう,301,
0,干し柿,276,
0,西洋なし,54,
0,天かす,618,
0,紫たまねぎ,38,
0,ポン酢,56,
0,味覇（ウェイパー）,,
0,水,,
0,クミンパウダー,,
0,もち米,,
